<?xml version="1.0" encoding="UTF-8"?>
<svg width="24px" height="24px" viewBox="0 0 24 24" version="1.1" xmlns="http://www.w3.org/2000/svg" xmlns:xlink="http://www.w3.org/1999/xlink">
    <title>31C831CB-2D20-4B79-A8C7-3B8EFB8597C9</title>
    <g id="Page-1" stroke="none" stroke-width="1" fill="none" fill-rule="evenodd">
        <g id="Eservices-service-1.7" transform="translate(-326.000000, -307.000000)">
            <g id="Icon-dot" transform="translate(326.000000, 307.000000)">
                <rect id="Rectangle" x="0" y="0" width="24" height="24"></rect>
                <circle id="Oval" fill="#484848" cx="12" cy="12" r="2"></circle>
            </g>
        </g>
    </g>
</svg>